<?xml version="1.0" encoding="utf-8"?>
<!-- Generator: Adobe Illustrator 25.0.1, SVG Export Plug-In . SVG Version: 6.00 Build 0)  -->
<svg version="1.1" id="Layer_1" xmlns="http://www.w3.org/2000/svg" xmlns:xlink="http://www.w3.org/1999/xlink" x="0px" y="0px"
	 viewBox="0 0 289 83" style="enable-background:new 0 0 289 83;" xml:space="preserve">
<style type="text/css">
	.st0{fill:#1658A5;}
	.st1{fill:#FFFFFF;}
	.st2{fill:#0080BB;stroke:#0080BB;stroke-miterlimit:10;}
	.st3{fill:none;}
	.st4{fill:#0080BB;}
	.st5{fill:#999999;}
	.st6{fill:#A6A8AB;}
</style>
<g>
	<g>
		<path class="st0" d="M263.6,48.9h7.6v-25h-6.9v15.6l-2-2V25.1c0-7.4,0.9-10.8,0.9-10.8c-2.3,0-3.6,2.2-3.8,2.9
			c-1.3,0.1-2.4,0.9-3.1,2.4c-0.4,0.9-0.7,1.6-0.7,2.1c-2.7,0.7-3.1,5.6-2.9,6.5l-4.3-4.2h-7.6v25h6.9V33.7l3.4,3.2
			c0.3,0.9,0.5,1.3,0.5,1.3l-1.3-1.1c-0.2,2.4,0.4,3.7,1.1,4.6l-1.6-1.3c-0.1,2.4,1.1,4,1.8,4.6l-2.1-1c-0.1,1.4,1.3,3.6,2.2,4.1
			l-1.8-0.2c0.4,2,1.8,2.7,1.8,2.7s-3.1-0.1-4.5-0.1c-4,0-6.5,0.3-6.5,0.3s1.8,1.8,4,1.8l-2,1.2c1.4,0.4,2.7,0.3,2.7,0.3l-1.1,1.3
			c0,0,3.6-1.4,5.1-1.3c1.2,0.1,6.8,2.3,10.5,2.3c2.5,0,4.4-1,5.8-1.8c0.9-0.4,1.6-0.9,2.4-1c1.3-0.2,2,0.3,2,0.3
			c0.1-0.5,0.5-2-1.6-2.4c-0.1-0.4-0.4-0.9-1.1-1c-1.2-0.2-6.2-0.5-6.4-0.5c-0.4,0-1.9-0.3-0.5-2.2c0.1-0.1,0.8-1,0.8-1L263.6,48.9
			 M263.5,50.8c1.6,0.1,2.9,0.2,4,0.3c0.4,0.1,0.7,0.5,0.7,0.8c-0.5-0.1-1.4-0.2-1.4-0.2v0.5c0,0,0.8-0.2,1.5-0.2c0,0,1.8,0,1.6,1.1
			c-0.4-0.3-1.4-0.2-1.6-0.1c-0.9,0.1-1.6,0.5-2.6,1c-0.9,0.4-1.8,1-2.9,1.3c0.4-0.4,1.8-1.9,1.8-1.9l-1.6-0.5l1.3-1.2l-2.1-1.1
			C262.5,50.8,262.9,50.8,263.5,50.8z M260.9,46.3c-0.8,0.9-1.8,2.2-1.5,3.1l0,0c0.1,0.8,1.2,1.2,1.2,1.2l2.3,1.3l-1.5,1.3l1.9,0.5
			c0,0-1.6,1.8-1.9,1.9c-0.4,0.1-1,0.1-1.5,0.1c-3.8,0-9.2-2.3-10.5-2.3c-1.6,0-3.6,0.9-3.6,0.9l1.1-1.1c0,0-1.4,0.3-2.7,0.2
			l1.9-1.3c-1.6,0-3.1-0.5-3.7-1c0,0,3.1-0.2,7.1-0.2c1.6,0,4.5,0.2,4.5,0.2c-1.4-0.5-2.7-1.4-3.3-2.7l2.6,0.4
			c-1.1-0.7-2.7-2.4-3.1-3.7l3,1c-0.5-0.5-2.4-2.3-2.7-4.3l2.3,1.4c-0.7-0.7-2.3-4-2-4.8l2.2,1.4c-1.1-1.3-2.3-4.7-1.4-6
			c0.7,2.6,2.2,3.5,2.2,3.5c-1-1.4-3.1-6.4-1.1-8.6c0.5,4.9,2.6,6.7,2.6,6.7c-1.8-2.7-3.7-11.4,0-13.1c-0.8,5.5,1,8.5,1,8.5
			c-1.1-5.1-1.1-12.3,2.7-13c-1.9,5.4-0.5,9.6-0.5,9.6c-0.2-12.7,3.8-12.5,3.8-12.5s-0.7,3.6-0.7,10v18.6
			C261.6,44.8,261.5,45.6,260.9,46.3z"/>
	</g>
	<path d="M248.7,59.8c0.4,0,0.8,0.3,0.8,0.8c0,0.4-0.3,0.8-0.8,0.8S248,61,248,60.5C247.9,60.1,248.3,59.8,248.7,59.8"/>
	<path d="M269.5,59.8c0.4,0,0.8,0.3,0.8,0.8c0,0.4-0.3,0.8-0.8,0.8c-0.4,0-0.8-0.3-0.8-0.8S269.1,59.8,269.5,59.8"/>
	<path d="M241.8,64.6h-0.1c-0.2,0-0.8,0-1.1,0.1c-0.2,0.1-0.4,0.2-0.4,0.4c0,0.3,0.3,0.5,0.7,0.5c0.7,0,1.1-0.4,1.1-1v-0.1
		 M243.1,63.8v2.9h-1.2v-0.4c-0.3,0.3-0.8,0.5-1.3,0.5c-1,0-1.8-0.5-1.8-1.5c0-1.4,1.5-1.6,3-1.6h0.1c0-0.4-0.2-0.8-1-0.8
		c-0.5,0-1,0.2-1.3,0.4l-0.8-0.8c0.5-0.5,1.3-0.8,2.1-0.8s1.2,0.1,1.6,0.5C243,62.6,243.1,63.4,243.1,63.8"/>
	<path d="M245.9,61.8v-1.4h-1.3V62h-1v1.1h1v2.1c0,0.7,0.1,1.1,0.4,1.3c0.2,0.2,0.7,0.3,1.2,0.3c0.3,0,0.8-0.1,1-0.2v-1.1
		c-0.2,0.1-0.4,0.1-0.8,0.1c-0.4,0-0.5-0.2-0.5-0.7v-2h1.3v-1.1L245.9,61.8"/>
	<path d="M280.4,63.7c-0.1-0.5-0.3-0.9-1-0.9c-0.5,0-1,0.4-1,0.9H280.4 M281.9,64.4v0.3h-3.5c0,0.4,0.5,0.9,1.2,1
		c0.7,0,1-0.2,1.2-0.5l0.9,0.7c-0.5,0.7-1.2,1.1-2.1,1.1c-1.4,0-2.6-0.9-2.6-2.5c0-1.3,0.8-2.5,2.5-2.5
		C281.1,61.7,281.9,63.1,281.9,64.4"/>
	<polyline points="236.4,59.8 236.4,64.5 233.5,59.8 231.6,59.8 231.6,66.7 233.1,66.7 233.1,61.7 236.1,66.7 237.9,66.7 
		237.9,59.8 236.4,59.8 	"/>
	<polyline points="267,61.8 266.2,64.8 265.4,61.8 264,61.8 263.2,64.8 262.5,61.8 260.9,61.8 262.5,66.7 263.9,66.7 264.7,63.6 
		265.5,66.7 266.9,66.7 268.4,61.8 267,61.8 	"/>
	<rect x="248.1" y="61.8" width="1.4" height="4.8"/>
	<rect x="268.8" y="61.8" width="1.4" height="4.8"/>
	<path d="M260.1,62.2c-0.3-0.3-0.7-0.4-1.2-0.4s-1.1,0.2-1.4,0.7V62h-1.3v4.8h1.4V64c0-0.3,0.1-0.5,0.2-0.8c0.1-0.1,0.3-0.2,0.5-0.2
		c0.3,0,0.4,0.1,0.5,0.2c0.1,0.2,0.2,0.5,0.2,1v2.4h1.4v-3C260.6,63.1,260.5,62.6,260.1,62.2"/>
	<path d="M274.9,64.3c0-0.7-0.4-1.3-1.2-1.3s-1.2,0.7-1.2,1.3c0,0.7,0.4,1.3,1.2,1.3S274.9,64.9,274.9,64.3 M276.2,59.8v6.9h-1.3
		v-0.5c-0.3,0.3-0.8,0.7-1.5,0.7s-1.2-0.2-1.6-0.7c-0.4-0.4-0.7-1.1-0.7-1.9c0-1.4,1-2.5,2.3-2.5c0.5,0,1.1,0.2,1.4,0.5v-2.5
		C274.8,59.8,276.2,59.8,276.2,59.8z"/>
	<path d="M252.8,62.9c-0.8,0-1.2,0.7-1.2,1.3c0,0.7,0.4,1.3,1.2,1.3s1.2-0.7,1.2-1.3S253.6,62.9,252.8,62.9 M255.4,64.3
		c0,1.4-1.1,2.5-2.6,2.5s-2.6-1.1-2.6-2.5s1.1-2.5,2.6-2.5C254.3,61.7,255.4,62.8,255.4,64.3"/>
	<path d="M282,60.9c0-0.5,0.4-0.9,0.9-0.9s0.9,0.4,0.9,0.9c0,0.4-0.4,0.9-0.9,0.9S282,61.3,282,60.9 M281.8,60.9
		c0,0.5,0.4,1.1,1.1,1.1s1.1-0.4,1.1-1.1c0-0.5-0.4-1.1-1.1-1.1S281.8,60.2,281.8,60.9 M282.7,60.4h0.2c0.1,0,0.3,0,0.3,0.2
		s-0.1,0.2-0.3,0.2h-0.2V60.4z M282.5,61.4h0.2v-0.5h0.2l0.3,0.5h0.2l-0.3-0.5c0.2,0,0.3-0.1,0.3-0.3s-0.1-0.3-0.4-0.3h-0.4v1.2
		h-0.1V61.4z"/>
	<path class="st1" d="M263.5,50.8c1.6,0.1,2.9,0.2,4,0.3c0.4,0.1,0.7,0.5,0.7,0.8c-0.5-0.1-1.4-0.2-1.4-0.2v0.5c0,0,0.8-0.2,1.5-0.2
		c0,0,1.8,0,1.6,1.1c-0.4-0.3-1.4-0.2-1.6-0.1c-0.9,0.1-1.6,0.5-2.6,1c-0.9,0.4-1.8,1-2.9,1.3c0.4-0.4,1.8-1.9,1.8-1.9l-1.6-0.5
		l1.3-1.2l-2.1-1.1C262.5,50.8,262.9,50.8,263.5,50.8 M260.9,46.3c-0.8,0.9-1.8,2.2-1.5,3.1l0,0c0.1,0.8,1.2,1.2,1.2,1.2l2.3,1.3
		l-1.5,1.3l1.9,0.5c0,0-1.6,1.8-1.9,1.9c-0.4,0.1-1,0.1-1.5,0.1c-3.8,0-9.2-2.3-10.5-2.3c-1.6,0-3.6,0.9-3.6,0.9l1.1-1.1
		c0,0-1.4,0.3-2.7,0.2l1.9-1.3c-1.6,0-3.1-0.5-3.7-1c0,0,3.1-0.2,7.1-0.2c1.6,0,4.5,0.2,4.5,0.2c-1.4-0.5-2.7-1.4-3.3-2.7l2.6,0.4
		c-1.1-0.7-2.7-2.4-3.1-3.7l3,1c-0.5-0.5-2.4-2.3-2.7-4.3l2.3,1.4c-0.7-0.7-2.3-4-2-4.8l2.2,1.4c-1.1-1.3-2.3-4.7-1.4-6
		c0.7,2.6,2.2,3.5,2.2,3.5c-1-1.4-3.1-6.4-1.1-8.6c0.5,4.9,2.6,6.7,2.6,6.7c-1.8-2.7-3.7-11.4,0-13.1c-0.8,5.5,1,8.5,1,8.5
		c-1.1-5.1-1.1-12.3,2.7-13c-1.9,5.4-0.5,9.6-0.5,9.6c-0.2-12.7,3.8-12.5,3.8-12.5s-0.7,3.6-0.7,10v18.6
		C261.6,44.8,261.5,45.6,260.9,46.3z"/>
</g>
<g>
	<path class="st2" d="M24.5,72.3h1.7c1.6,0,2.7,1.1,2.7,2.5l0,0c0,1.4-1.1,2.5-2.7,2.5h-1.7V72.3z M26.2,77.1c1.4,0,2.3-1,2.3-2.2
		l0,0c0-1.2-0.9-2.2-2.3-2.2h-1.3v4.4C24.9,77.1,26.2,77.1,26.2,77.1z"/>
	<path class="st2" d="M33.8,72.3h3.6v0.3h-3.2v2h2.9V75h-2.9v2h3.3v0.3h-3.7C33.8,77.3,33.8,72.3,33.8,72.3z"/>
	<path class="st2" d="M42.3,72.3h0.4l3.5,4.4v-4.4h0.4v5.1h-0.3l-3.6-4.5v4.5h-0.4C42.3,77.4,42.3,72.3,42.3,72.3z"/>
	<path class="st2" d="M53.1,72.7h-1.8v-0.3h3.9v0.3h-1.8v4.7H53L53.1,72.7L53.1,72.7z"/>
	<path class="st2" d="M61.3,72.3h0.4l2.4,5.1h-0.4L63,76h-3l-0.6,1.4H59L61.3,72.3z M62.8,75.6l-1.3-2.9l-1.3,2.9H62.8z"/>
	<path class="st2" d="M68.8,72.3h0.4V77h3v0.3h-3.4V72.3z"/>
	<path class="st2" d="M85.6,76.6c-0.5,0.6-1,0.9-1.7,0.9c-0.9,0-1.6-0.6-1.6-1.4l0,0c0-0.7,0.5-1.2,1.3-1.5
		c-0.4-0.4-0.6-0.7-0.6-1.2l0,0c0-0.7,0.5-1.2,1.3-1.2c0.7,0,1.2,0.5,1.2,1.1l0,0c0,0.6-0.5,1-1.2,1.3l1.3,1.4
		c0.2-0.3,0.5-0.8,0.7-1.2l0.3,0.1c-0.2,0.5-0.5,1-0.8,1.4l0.9,1l-0.3,0.2L85.6,76.6z M85.4,76.4l-1.5-1.6c-0.8,0.3-1.2,0.7-1.2,1.2
		l0,0c0,0.6,0.5,1.1,1.2,1.1C84.4,77.2,84.9,76.9,85.4,76.4z M85.1,73.4L85.1,73.4c0-0.5-0.3-0.8-0.8-0.8s-0.9,0.4-0.9,0.8l0,0
		c0,0.3,0.1,0.6,0.6,1C84.8,74.2,85.1,73.9,85.1,73.4z"/>
	<path class="st2" d="M96.8,72.3h0.4l2,4.7l2-4.7h0.4l-2.2,5.1H99L96.8,72.3z"/>
	<path class="st2" d="M106.4,72.3h0.4v5.1h-0.4V72.3z"/>
	<path class="st2" d="M111.6,76.7l0.2-0.3c0.6,0.5,1.1,0.8,1.8,0.8c0.8,0,1.3-0.4,1.3-1l0,0c0-0.5-0.3-0.9-1.4-1.1
		c-1.2-0.2-1.7-0.7-1.7-1.4l0,0c0-0.8,0.7-1.3,1.6-1.3c0.7,0,1.2,0.2,1.7,0.6l-0.2,0.3c-0.5-0.4-1-0.6-1.5-0.6c-0.7,0-1.2,0.4-1.2,1
		l0,0c0,0.5,0.3,0.9,1.5,1.1s1.7,0.7,1.7,1.4l0,0c0,0.8-0.7,1.4-1.7,1.4C112.8,77.5,112.2,77.2,111.6,76.7z"/>
	<path class="st2" d="M120.3,72.3h0.4v5.1h-0.4V72.3z"/>
	<path class="st2" d="M125.6,74.9L125.6,74.9c0-1.4,1-2.6,2.6-2.6c1.6,0,2.6,1.2,2.6,2.6l0,0c0,1.4-1,2.6-2.6,2.6
		C126.6,77.5,125.6,76.3,125.6,74.9z M130.3,74.9L130.3,74.9c0-1.3-0.9-2.3-2.2-2.3s-2.2,1-2.2,2.3l0,0c0,1.3,0.9,2.3,2.2,2.3
		C129.4,77.2,130.3,76.1,130.3,74.9z"/>
	<path class="st2" d="M135.7,72.3h0.4l3.5,4.4v-4.4h0.4v5.1h-0.3l-3.6-4.5v4.5h-0.4L135.7,72.3L135.7,72.3z"/>
</g>
<g>
	<path class="st3" d="M123,39.7c2.1-0.9,3.8-2,5.2-3.5c1.4-1.4,2.4-3.1,3.1-4.9c0.7-1.8,1-3.7,1-5.7c0-1.9-0.3-3.8-1-5.7
		c-0.7-1.8-1.7-3.5-3.1-4.9c-1.4-1.4-3.1-2.6-5.2-3.5s-4.6-1.3-7.4-1.3H108V41h7.6C118.4,41,120.8,40.6,123,39.7z"/>
	<path class="st4" d="M61.8,6.9H58v32h-0.1l-21.8-32h-4.8v37.5h3.8V12.1h0.1l21,31.1c1.8-0.4,3.7-0.8,5.6-1.2V6.9z"/>
	<path class="st4" d="M74.4,37.1c-1.3-1.5-2.4-3.2-3.1-5.2s-1.1-4.1-1.1-6.2c0-2.2,0.4-4.3,1.1-6.2c0.7-2,1.7-3.7,3.1-5.2
		c1.3-1.5,3-2.7,4.9-3.6s4.1-1.3,6.5-1.3c1.2,0,2.3,0.1,3.4,0.4c1,0.3,2,0.7,2.9,1.1c0.9,0.5,1.7,1,2.3,1.6c0.7,0.6,1.2,1.2,1.6,1.8
		l3.2-2.3c-0.6-0.9-1.4-1.7-2.4-2.5c-1-0.7-2-1.4-3.2-1.9s-2.4-0.9-3.7-1.2C88.6,6.1,87.2,6,85.8,6C83,6,80.4,6.5,78,7.5
		s-4.5,2.4-6.2,4.1c-1.8,1.8-3.1,3.8-4.1,6.2s-1.5,5-1.5,7.9s0.5,5.5,1.5,7.9s2.3,4.5,4.1,6.2c0.3,0.3,0.6,0.6,0.9,0.9
		c2-0.2,4-0.3,6-0.3C77,39.5,75.6,38.4,74.4,37.1z"/>
	<path class="st4" d="M97.5,41c0.9-0.9,1.7-1.8,2.3-2.7l-3-1.9c-1.3,1.9-2.9,3.4-4.9,4.2c-0.1,0-0.1,0.1-0.2,0.1
		c1.8,0.2,3.6,0.4,5.4,0.6C97.3,41.3,97.4,41.1,97.5,41z"/>
	<path class="st5" d="M116.6,44.4c2.3,0,4.7-0.4,7-1.2c2.4-0.8,4.5-2,6.4-3.5c1.9-1.6,3.4-3.5,4.6-5.9c1.2-2.3,1.7-5.1,1.7-8.2
		s-0.6-5.8-1.7-8.2c-1.2-2.4-2.7-4.3-4.6-5.9c-1.9-1.6-4-2.7-6.4-3.5s-4.7-1.2-7-1.2h-12.5v35.7c2.6,0.5,5.2,1.2,7.7,1.9H116.6z
		 M108,10.3h7.6c2.8,0,5.3,0.4,7.4,1.3c2.1,0.9,3.8,2,5.2,3.5c1.4,1.4,2.4,3.1,3.1,4.9c0.7,1.8,1,3.7,1,5.7c0,1.9-0.3,3.8-1,5.7
		c-0.7,1.8-1.7,3.5-3.1,4.9c-1.4,1.4-3.1,2.6-5.2,3.5s-4.6,1.3-7.4,1.3H108V10.3z"/>
</g>
<g id="XMLID_6_">
	<path id="XMLID_8_" class="st4" d="M82.2,49.8c27.6,0,52.9,8.4,72.8,22.5C137.1,55,111.1,44.1,82.2,44.1S27.4,55,9.5,72.3
		C29.3,58.2,54.6,49.8,82.2,49.8z"/>
	<path id="XMLID_7_" class="st6" d="M82.2,57.6c18,0,34.5,3.4,47.5,9.1c-11.7-7-28.6-11.4-47.5-11.4s-35.8,4.4-47.5,11.4
		C47.7,61,64.2,57.6,82.2,57.6z"/>
</g>
<g>
	<path d="M163.6,34.5h1.8c1.7,0,2.8,1.1,2.8,2.6v0c0,1.5-1.2,2.7-2.8,2.7h-1.8V34.5z M165.3,39.5c1.5,0,2.4-1,2.4-2.3v0
		c0-1.3-0.9-2.3-2.4-2.3H164v4.6H165.3z"/>
	<path d="M169.2,37.9L169.2,37.9c0-1.1,0.8-2,1.8-2c1.1,0,1.8,0.9,1.8,2c0,0.1,0,0.1,0,0.2h-3.2c0.1,1,0.8,1.5,1.5,1.5
		c0.6,0,1-0.3,1.3-0.6l0.3,0.2c-0.4,0.4-0.9,0.7-1.6,0.7C170,39.9,169.2,39.1,169.2,37.9z M172.4,37.7c-0.1-0.8-0.5-1.5-1.4-1.5
		c-0.8,0-1.4,0.6-1.4,1.5H172.4z"/>
	<path d="M173.9,36h0.4v0.7c0.3-0.5,0.7-0.8,1.4-0.8c1,0,1.5,0.7,1.5,1.6v2.4h-0.4v-2.3c0-0.8-0.4-1.3-1.2-1.3
		c-0.8,0-1.3,0.6-1.3,1.4v2.2h-0.4V36z"/>
	<path d="M178.7,38.8v-2.5h-0.6V36h0.6v-1.2h0.4V36h1.4v0.3h-1.4v2.5c0,0.6,0.3,0.8,0.8,0.8c0.2,0,0.3,0,0.6-0.1v0.3
		c-0.2,0.1-0.4,0.1-0.6,0.1C179.2,39.9,178.7,39.6,178.7,38.8z"/>
	<path d="M181.2,38.7L181.2,38.7c0-0.8,0.7-1.3,1.7-1.3c0.5,0,0.9,0.1,1.3,0.2v-0.2c0-0.8-0.5-1.2-1.3-1.2c-0.5,0-0.9,0.1-1.2,0.3
		l-0.1-0.3c0.4-0.2,0.8-0.3,1.4-0.3c0.5,0,0.9,0.1,1.2,0.4c0.3,0.3,0.4,0.6,0.4,1.1v2.4h-0.4v-0.6c-0.3,0.4-0.7,0.7-1.5,0.7
		C182,39.9,181.2,39.5,181.2,38.7z M184.2,38.4V38c-0.3-0.1-0.8-0.2-1.3-0.2c-0.8,0-1.3,0.4-1.3,0.9v0c0,0.6,0.5,0.9,1.1,0.9
		C183.5,39.6,184.2,39.1,184.2,38.4z"/>
	<path d="M185.9,34.3h0.4v5.5h-0.4V34.3z"/>
	<path d="M163.5,45.6v-3.1h0.4v3.1c0,1.3,0.7,2,1.8,2c1.1,0,1.8-0.7,1.8-1.9v-3.1h0.4v3.1c0,1.5-0.9,2.3-2.2,2.3
		C164.4,47.9,163.5,47.1,163.5,45.6z"/>
	<path d="M169.3,44h0.4v0.7c0.3-0.5,0.7-0.8,1.4-0.8c1,0,1.5,0.7,1.5,1.6v2.4h-0.4v-2.3c0-0.8-0.4-1.3-1.2-1.3
		c-0.8,0-1.3,0.6-1.3,1.4v2.2h-0.4V44z"/>
	<path d="M173.7,45.9L173.7,45.9c0-1.3,0.9-2,1.9-2c0.8,0,1.3,0.4,1.6,0.9v-2.5h0.4v5.5h-0.4V47c-0.3,0.5-0.8,1-1.6,1
		C174.6,47.9,173.7,47.2,173.7,45.9z M177.2,45.9L177.2,45.9c0-1-0.8-1.7-1.6-1.7c-0.8,0-1.5,0.6-1.5,1.7v0c0,1,0.7,1.7,1.5,1.7
		C176.4,47.6,177.2,46.9,177.2,45.9z"/>
	<path d="M178.6,45.9L178.6,45.9c0-1.1,0.8-2,1.8-2c1.1,0,1.8,0.9,1.8,2c0,0.1,0,0.1,0,0.2H179c0.1,1,0.8,1.5,1.5,1.5
		c0.6,0,1-0.3,1.3-0.6l0.3,0.2c-0.4,0.4-0.9,0.7-1.6,0.7C179.5,47.9,178.6,47.1,178.6,45.9z M181.9,45.7c-0.1-0.8-0.5-1.5-1.4-1.5
		c-0.8,0-1.4,0.6-1.4,1.5H181.9z"/>
	<path d="M183.3,44h0.4v1.1c0.3-0.7,0.9-1.2,1.7-1.2v0.4h0c-0.9,0-1.7,0.7-1.7,1.9v1.6h-0.4V44z"/>
	<path d="M186,44h0.4l1.2,3.4l1.2-3.4h0.3l1.2,3.4l1.2-3.4h0.4l-1.4,3.9h-0.3l-1.2-3.3l-1.2,3.3h-0.3L186,44z"/>
	<path d="M192.9,44h0.4v1.1c0.3-0.7,0.9-1.2,1.7-1.2v0.4h0c-0.9,0-1.7,0.7-1.7,1.9v1.6h-0.4V44z"/>
	<path d="M196,42.5h0.5V43H196V42.5z M196,44h0.4v3.9H196V44z"/>
	<path d="M198,46.8v-2.5h-0.6V44h0.6v-1.2h0.4V44h1.4v0.3h-1.4v2.5c0,0.6,0.3,0.8,0.8,0.8c0.2,0,0.3,0,0.6-0.1v0.3
		c-0.2,0.1-0.4,0.1-0.6,0.1C198.5,47.9,198,47.6,198,46.8z"/>
	<path d="M201.1,46.8v-2.5h-0.6V44h0.6v-1.2h0.4V44h1.4v0.3h-1.4v2.5c0,0.6,0.3,0.8,0.8,0.8c0.2,0,0.3,0,0.6-0.1v0.3
		c-0.2,0.1-0.4,0.1-0.6,0.1C201.6,47.9,201.1,47.6,201.1,46.8z"/>
	<path d="M203.5,45.9L203.5,45.9c0-1.1,0.8-2,1.8-2c1.1,0,1.8,0.9,1.8,2c0,0.1,0,0.1,0,0.2h-3.2c0.1,1,0.8,1.5,1.5,1.5
		c0.6,0,1-0.3,1.3-0.6l0.3,0.2c-0.4,0.4-0.9,0.7-1.6,0.7C204.4,47.9,203.5,47.1,203.5,45.9z M206.7,45.7c-0.1-0.8-0.5-1.5-1.4-1.5
		c-0.8,0-1.4,0.6-1.4,1.5H206.7z"/>
	<path d="M208.2,44h0.4v0.7c0.3-0.5,0.7-0.8,1.4-0.8c1,0,1.5,0.7,1.5,1.6v2.4h-0.4v-2.3c0-0.8-0.4-1.3-1.2-1.3
		c-0.8,0-1.3,0.6-1.3,1.4v2.2h-0.4V44z"/>
	<path d="M215.5,47v0.8h-0.4v-5.5h0.4v2.5c0.3-0.5,0.8-1,1.6-1c0.9,0,1.9,0.8,1.9,2v0c0,1.3-0.9,2-1.9,2
		C216.3,47.9,215.8,47.5,215.5,47z M218.6,45.9L218.6,45.9c0-1-0.7-1.7-1.5-1.7c-0.8,0-1.6,0.7-1.6,1.7v0c0,1,0.8,1.7,1.6,1.7
		C217.9,47.6,218.6,47,218.6,45.9z"/>
	<path d="M219.7,48.9l0.1-0.3c0.2,0.1,0.4,0.1,0.7,0.1c0.4,0,0.7-0.2,1-0.9l-1.9-3.8h0.4l1.6,3.5L223,44h0.4l-1.7,4
		c-0.3,0.8-0.7,1.1-1.3,1.1C220.1,49.1,219.9,49,219.7,48.9z"/>
</g>
</svg>
